[
{
    "model": "base.satellite",
    "pk": 1,
    "fields": {
        "norad_cat_id": 7530,
        "name": "OSCAR 7",
        "names": "AO-7"
    }
},
{
    "model": "base.satellite",
    "pk": 2,
    "fields": {
        "norad_cat_id": 14781,
        "name": "UOSAT 2",
        "names": "UO-11"
    }
},
{
    "model": "base.satellite",
    "pk": 3,
    "fields": {
        "norad_cat_id": 20442,
        "name": "LUSAT",
        "names": "LO-19"
    }
},
{
    "model": "base.satellite",
    "pk": 4,
    "fields": {
        "norad_cat_id": 22826,
        "name": "ITAMSAT",
        "names": "IO-26"
    }
},
{
    "model": "base.satellite",
    "pk": 5,
    "fields": {
        "norad_cat_id": 23439,
        "name": "RADIO ROSTO",
        "names": "RS-15"
    }
},
{
    "model": "base.satellite",
    "pk": 6,
    "fields": {
        "norad_cat_id": 24278,
        "name": "JAS-2",
        "names": "FO-29"
    }
},
{
    "model": "base.satellite",
    "pk": 7,
    "fields": {
        "norad_cat_id": 25397,
        "name": "TECHSAT 1B",
        "names": "GO-32"
    }
},
{
    "model": "base.satellite",
    "pk": 8,
    "fields": {
        "norad_cat_id": 25544,
        "name": "ISS",
        "names": "ZARYA"
    }
},
{
    "model": "base.satellite",
    "pk": 9,
    "fields": {
        "norad_cat_id": 26931,
        "name": "PCSAT",
        "names": "NO-44"
    }
},
{
    "model": "base.satellite",
    "pk": 10,
    "fields": {
        "norad_cat_id": 27607,
        "name": "SAUDISAT 1C",
        "names": "SO-50"
    }
},
{
    "model": "base.satellite",
    "pk": 11,
    "fields": {
        "norad_cat_id": 27844,
        "name": "CUTE-1",
        "names": "CO-55"
    }
},
{
    "model": "base.satellite",
    "pk": 12,
    "fields": {
        "norad_cat_id": 27848,
        "name": "CUBESAT XI-IV",
        "names": "CO-57"
    }
},
{
    "model": "base.satellite",
    "pk": 13,
    "fields": {
        "norad_cat_id": 27939,
        "name": "MOZHAYETS 4",
        "names": "RS-22"
    }
},
{
    "model": "base.satellite",
    "pk": 14,
    "fields": {
        "norad_cat_id": 28650,
        "name": "HAMSAT",
        "names": "VO-52"
    }
},
{
    "model": "base.satellite",
    "pk": 15,
    "fields": {
        "norad_cat_id": 28895,
        "name": "CUBESAT XI-V",
        "names": "CO-58"
    }
},
{
    "model": "base.satellite",
    "pk": 16,
    "fields": {
        "norad_cat_id": 32785,
        "name": "CUTE-1.7+APD II",
        "names": "CO-65"
    }
},
{
    "model": "base.satellite",
    "pk": 17,
    "fields": {
        "norad_cat_id": 32789,
        "name": "DELFI-C3",
        "names": "DO-64"
    }
},
{
    "model": "base.satellite",
    "pk": 18,
    "fields": {
        "norad_cat_id": 32791,
        "name": "SEEDS II",
        "names": "CO-66"
    }
},
{
    "model": "base.satellite",
    "pk": 19,
    "fields": {
        "norad_cat_id": 32953,
        "name": "YUBILEINY",
        "names": "RS-30"
    }
},
{
    "model": "base.satellite",
    "pk": 20,
    "fields": {
        "norad_cat_id": 33493,
        "name": "PRISM",
        "names": "HITOMI"
    }
},
{
    "model": "base.satellite",
    "pk": 21,
    "fields": {
        "norad_cat_id": 33499,
        "name": "KKS-1",
        "names": "KISEKI"
    }
},
{
    "model": "base.satellite",
    "pk": 22,
    "fields": {
        "norad_cat_id": 35932,
        "name": "SWISSCUBE",
        "names": ""
    }
},
{
    "model": "base.satellite",
    "pk": 23,
    "fields": {
        "norad_cat_id": 35933,
        "name": "BEESAT",
        "names": ""
    }
},
{
    "model": "base.satellite",
    "pk": 24,
    "fields": {
        "norad_cat_id": 35935,
        "name": "ITUPSAT 1",
        "names": ""
    }
},
{
    "model": "base.satellite",
    "pk": 25,
    "fields": {
        "norad_cat_id": 36122,
        "name": "XIWANG-1",
        "names": "HO-68\r\nXW-1\r\nHOPE-1"
    }
},
{
    "model": "base.satellite",
    "pk": 26,
    "fields": {
        "norad_cat_id": 36799,
        "name": "TISAT 1",
        "names": "",
        "image": ""
    }
},
{
    "model": "base.satellite",
    "pk": 27,
    "fields": {
        "norad_cat_id": 37839,
        "name": "JUGNU",
        "names": ""
    }
},
{
    "model": "base.satellite",
    "pk": 28,
    "fields": {
        "norad_cat_id": 37841,
        "name": "SRMSAT",
        "names": ""
    }
},
{
    "model": "base.satellite",
    "pk": 29,
    "fields": {
        "norad_cat_id": 37855,
        "name": "M-CUBED & EXP-1 PRIME",
        "names": "E1P-U2"
    }
},
{
    "model": "base.satellite",
    "pk": 31,
    "fields": {
        "norad_cat_id": 39087,
        "name": "AAUSAT 3",
        "names": ""
    }
},
{
    "model": "base.satellite",
    "pk": 32,
    "fields": {
        "norad_cat_id": 39090,
        "name": "STRAND-1",
        "names": ""
    }
},
{
    "model": "base.satellite",
    "pk": 33,
    "fields": {
        "norad_cat_id": 39134,
        "name": "SOMP",
        "names": ""
    }
},
{
    "model": "base.satellite",
    "pk": 34,
    "fields": {
        "norad_cat_id": 39136,
        "name": "BEESAT-2",
        "names": ""
    }
},
{
    "model": "base.satellite",
    "pk": 35,
    "fields": {
        "norad_cat_id": 39153,
        "name": "CUBEBUG-1",
        "names": "CAPITAN BETO"
    }
},
{
    "model": "base.satellite",
    "pk": 36,
    "fields": {
        "norad_cat_id": 39417,
        "name": "ZACUBE-1",
        "names": "TSHEPISOSAT"
    }
},
{
    "model": "base.satellite",
    "pk": 37,
    "fields": {
        "norad_cat_id": 39427,
        "name": "TRITON-1",
        "names": ""
    }
},
{
    "model": "base.satellite",
    "pk": 38,
    "fields": {
        "norad_cat_id": 39430,
        "name": "GOMX-1",
        "names": "GATOSS"
    }
},
{
    "model": "base.satellite",
    "pk": 39,
    "fields": {
        "norad_cat_id": 39433,
        "name": "HUMSAT-D",
        "names": ""
    }
},
{
    "model": "base.satellite",
    "pk": 41,
    "fields": {
        "norad_cat_id": 39438,
        "name": "VELOX-PII",
        "names": ""
    }
},
{
    "model": "base.satellite",
    "pk": 42,
    "fields": {
        "norad_cat_id": 39440,
        "name": "CUBEBUG-2",
        "names": "LO-74"
    }
},
{
    "model": "base.satellite",
    "pk": 43,
    "fields": {
        "norad_cat_id": 39444,
        "name": "FUNCUBE-1",
        "names": "AO-73"
    }
},
{
    "model": "base.satellite",
    "pk": 44,
    "fields": {
        "norad_cat_id": 39446,
        "name": "UWE-3",
        "names": ""
    }
},
{
    "model": "base.satellite",
    "pk": 45,
    "fields": {
        "norad_cat_id": 39770,
        "name": "SPROUT",
        "names": ""
    }
},
{
    "model": "base.satellite",
    "pk": 46,
    "fields": {
        "norad_cat_id": 40021,
        "name": "DUCHIFAT-1",
        "names": ""
    }
},
{
    "model": "base.satellite",
    "pk": 47,
    "fields": {
        "norad_cat_id": 40025,
        "name": "QB50P1",
        "names": "EO 79, European-OSCAR 79, FUNcube 3, EO-79"
    }
},
{
    "model": "base.satellite",
    "pk": 49,
    "fields": {
        "norad_cat_id": 40661,
        "name": "LIGHTSAIL-1",
        "names": ""
    }
},
{
    "model": "base.satellite",
    "pk": 50,
    "fields": {
        "norad_cat_id": 40719,
        "name": "DEORBITSAIL",
        "names": ""
    }
},
{
    "model": "base.satellite",
    "pk": 51,
    "fields": {
        "norad_cat_id": 40379,
        "name": "GRIFEX",
        "names": ""
    }
},
{
    "model": "base.satellite",
    "pk": 52,
    "fields": {
        "norad_cat_id": 40654,
        "name": "ParkinsonSAT",
        "names": "PSAT\r\nNO-84"
    }
},
{
    "model": "base.satellite",
    "pk": 53,
    "fields": {
        "norad_cat_id": 40655,
        "name": "NO-83",
        "names": "BRICSat-P"
    }
},
{
    "model": "base.satellite",
    "pk": 54,
    "fields": {
        "norad_cat_id": 40377,
        "name": "FIREBIRD 3",
        "names": ""
    }
},
{
    "model": "base.satellite",
    "pk": 55,
    "fields": {
        "norad_cat_id": 40378,
        "name": "FIREBIRD 4",
        "names": ""
    }
},
{
    "model": "base.satellite",
    "pk": 56,
    "fields": {
        "norad_cat_id": 40380,
        "name": "EXOCUBE",
        "names": ""
    }
},
{
    "model": "base.satellite",
    "pk": 57,
    "fields": {
        "norad_cat_id": 40074,
        "name": "UKUBE-1",
        "names": ""
    }
},
{
    "model": "base.satellite",
    "pk": 58,
    "fields": {
        "norad_cat_id": 40071,
        "name": "DX1",
        "names": "DX-1"
    }
},
{
    "model": "base.satellite",
    "pk": 59,
    "fields": {
        "norad_cat_id": 40054,
        "name": "AISAT",
        "names": ""
    }
},
{
    "model": "base.satellite",
    "pk": 60,
    "fields": {
        "norad_cat_id": 40057,
        "name": "VELOX 1",
        "names": ""
    }
},
{
    "model": "base.satellite",
    "pk": 61,
    "fields": {
        "norad_cat_id": 40014,
        "name": "BUGSAT-1",
        "names": "TITA"
    }
},
{
    "model": "base.satellite",
    "pk": 62,
    "fields": {
        "norad_cat_id": 40024,
        "name": "NANOSATC-BR1",
        "names": "NCBR-1\r\nNCBR1"
    }
},
{
    "model": "base.satellite",
    "pk": 63,
    "fields": {
        "norad_cat_id": 40042,
        "name": "POLYITAN-1",
        "names": ""
    }
},
{
    "model": "base.satellite",
    "pk": 64,
    "fields": {
        "norad_cat_id": 40032,
        "name": "QB50P2",
        "names": "EO 80, European-OSCAR 80, EO-80"
    }
},
{
    "model": "base.satellite",
    "pk": 65,
    "fields": {
        "norad_cat_id": 40012,
        "name": "UNISAT-6",
        "names": ""
    }
},
{
    "model": "base.satellite",
    "pk": 66,
    "fields": {
        "norad_cat_id": 40043,
        "name": "TIGRISAT",
        "names": ""
    }
},
{
    "model": "base.satellite",
    "pk": 67,
    "fields": {
        "norad_cat_id": 39436,
        "name": "EAGLE 2",
        "names": ""
    }
},
{
    "model": "base.satellite",
    "pk": 68,
    "fields": {
        "norad_cat_id": 38340,
        "name": "HORYU 2",
        "names": ""
    }
},
{
    "model": "base.satellite",
    "pk": 69,
    "fields": {
        "norad_cat_id": 40948,
        "name": "AAUSAT 5",
        "names": "",
        "image": ""
    }
},
{
    "model": "base.satellite",
    "pk": 70,
    "fields": {
        "norad_cat_id": 40949,
        "name": "GOMX-3",
        "names": "",
        "image": ""
    }
},
{
    "model": "base.satellite",
    "pk": 71,
    "fields": {
        "norad_cat_id": 40928,
        "name": "TIANWANG-1A",
        "names": "TW-1A\r\nShangkeda-2\r\nSECM",
        "image": ""
    }
},
{
    "model": "base.satellite",
    "pk": 72,
    "fields": {
        "norad_cat_id": 40927,
        "name": "TIANWANG-1B",
        "names": "TW-1B\r\nNJUST-2",
        "image": ""
    }
},
{
    "model": "base.satellite",
    "pk": 73,
    "fields": {
        "norad_cat_id": 40926,
        "name": "TIANWANG-1C",
        "names": "TW-1C\r\nNJFA-1",
        "image": ""
    }
},
{
    "model": "base.satellite",
    "pk": 74,
    "fields": {
        "norad_cat_id": 40903,
        "name": "XW-2A",
        "names": "CAS-3A",
        "image": ""
    }
},
{
    "model": "base.satellite",
    "pk": 75,
    "fields": {
        "norad_cat_id": 40911,
        "name": "XW-2B",
        "names": "CAS-3B",
        "image": ""
    }
},
{
    "model": "base.satellite",
    "pk": 76,
    "fields": {
        "norad_cat_id": 40906,
        "name": "XW-2C",
        "names": "CAS-3C",
        "image": ""
    }
},
{
    "model": "base.satellite",
    "pk": 77,
    "fields": {
        "norad_cat_id": 40907,
        "name": "XW-2D",
        "names": "CAS-3D",
        "image": ""
    }
},
{
    "model": "base.satellite",
    "pk": 78,
    "fields": {
        "norad_cat_id": 40909,
        "name": "XW-2E",
        "names": "CAS-3E",
        "image": ""
    }
},
{
    "model": "base.satellite",
    "pk": 79,
    "fields": {
        "norad_cat_id": 40910,
        "name": "XW-2F",
        "names": "CAS-3F",
        "image": ""
    }
},
{
    "model": "base.satellite",
    "pk": 80,
    "fields": {
        "norad_cat_id": 40912,
        "name": "KAITUO-1B",
        "names": "CAS-3G\r\nDCBB\r\nXW-2G",
        "image": ""
    }
},
{
    "model": "base.satellite",
    "pk": 81,
    "fields": {
        "norad_cat_id": 40908,
        "name": "LILACSAT-2",
        "names": "CAS-3H\r\nXW-2H",
        "image": ""
    }
},
{
    "model": "base.satellite",
    "pk": 82,
    "fields": {
        "norad_cat_id": 40900,
        "name": "NUDT-PHONESAT",
        "names": "CAS-3I\r\nXW-2I",
        "image": ""
    }
},
{
    "model": "base.satellite",
    "pk": 83,
    "fields": {
        "norad_cat_id": 40897,
        "name": "SERPENS",
        "names": "PY0ESA",
        "image": ""
    }
},
{
    "model": "base.satellite",
    "pk": 85,
    "fields": {
        "norad_cat_id": 32788,
        "name": "AAUSAT",
        "names": "CUBESAT-2\r\nAAUSAT-2",
        "image": ""
    }
},
{
    "model": "base.satellite",
    "pk": 86,
    "fields": {
        "norad_cat_id": 39439,
        "name": "FIRST-MOVE",
        "names": "",
        "image": ""
    }
},
{
    "model": "base.satellite",
    "pk": 87,
    "fields": {
        "norad_cat_id": 39407,
        "name": "VERMONT LUNAR",
        "names": "",
        "image": ""
    }
},
{
    "model": "base.satellite",
    "pk": 88,
    "fields": {
        "norad_cat_id": 39381,
        "name": "PHONESAT 2.4",
        "names": "",
        "image": ""
    }
},
{
    "model": "base.satellite",
    "pk": 89,
    "fields": {
        "norad_cat_id": 40967,
        "name": "FOX-1A",
        "names": "AO-85",
        "image": ""
    }
},
{
    "model": "base.satellite",
    "pk": 90,
    "fields": {
        "norad_cat_id": 25338,
        "name": "NOAA-15",
        "names": "",
        "image": ""
    }
},
{
    "model": "base.satellite",
    "pk": 91,
    "fields": {
        "norad_cat_id": 28654,
        "name": "NOAA-18",
        "names": "",
        "image": ""
    }
},
{
    "model": "base.satellite",
    "pk": 92,
    "fields": {
        "norad_cat_id": 33591,
        "name": "NOAA-19",
        "names": "",
        "image": ""
    }
},
{
    "model": "base.satellite",
    "pk": 93,
    "fields": {
        "norad_cat_id": 32958,
        "name": "FY-3A",
        "names": "Feng-Yun-3A",
        "image": ""
    }
},
{
    "model": "base.satellite",
    "pk": 94,
    "fields": {
        "norad_cat_id": 37214,
        "name": "FY-3B",
        "names": "Feng-Yun-3B",
        "image": ""
    }
},
{
    "model": "base.satellite",
    "pk": 95,
    "fields": {
        "norad_cat_id": 39260,
        "name": "FY-3C",
        "names": "Feng-Yun-3C",
        "image": ""
    }
},
{
    "model": "base.satellite",
    "pk": 96,
    "fields": {
        "norad_cat_id": 29499,
        "name": "METOP-A",
        "names": "",
        "image": ""
    }
},
{
    "model": "base.satellite",
    "pk": 97,
    "fields": {
        "norad_cat_id": 38771,
        "name": "METOP-B",
        "names": "",
        "image": ""
    }
},
{
    "model": "base.satellite",
    "pk": 98,
    "fields": {
        "norad_cat_id": 41168,
        "name": "ATHENOXAT-1",
        "names": "ATX1",
        "image": ""
    }
},
{
    "model": "base.satellite",
    "pk": 99,
    "fields": {
        "norad_cat_id": 41171,
        "name": "VELOX-2",
        "names": "VELOX2",
        "image": ""
    }
},
{
    "model": "base.satellite",
    "pk": 100,
    "fields": {
        "norad_cat_id": 41313,
        "name": "AGGIESAT-4",
        "names": "",
        "image": ""
    }
},
{
    "model": "base.satellite",
    "pk": 101,
    "fields": {
        "norad_cat_id": 41338,
        "name": "CHUBUSAT-2",
        "names": "JJ2YPN"
    }
},
{
    "model": "base.satellite",
    "pk": 102,
    "fields": {
        "norad_cat_id": 41339,
        "name": "CHUBUSAT-3",
        "names": "JJ2YPO",
        "image": ""
    }
},
{
    "model": "base.satellite",
    "pk": 103,
    "fields": {
        "norad_cat_id": 41340,
        "name": "HORYU-4",
        "names": "JG6YBW"
    }
},
{
    "model": "base.satellite",
    "pk": 104,
    "fields": {
        "norad_cat_id": 40968,
        "name": "BISONSAT",
        "names": "N7SKC",
        "image": ""
    }
},
{
    "model": "base.satellite",
    "pk": 105,
    "fields": {
        "norad_cat_id": 40958,
        "name": "LQSAT",
        "names": "",
        "image": ""
    }
},
{
    "model": "base.satellite",
    "pk": 106,
    "fields": {
        "norad_cat_id": 40931,
        "name": "LAPAN-A2",
        "names": "ORARI\r\nIO-86",
        "image": ""
    }
},
{
    "model": "base.satellite",
    "pk": 107,
    "fields": {
        "norad_cat_id": 41466,
        "name": "SAMSAT-218D",
        "names": ""
    }
},
{
    "model": "base.satellite",
    "pk": 108,
    "fields": {
        "norad_cat_id": 41607,
        "name": "SWAYAM",
        "names": "",
        "image": ""
    }
},
{
    "model": "base.satellite",
    "pk": 109,
    "fields": {
        "norad_cat_id": 41604,
        "name": "BIROS",
        "names": "",
        "image": ""
    }
},
{
    "model": "base.satellite",
    "pk": 110,
    "fields": {
        "norad_cat_id": 41600,
        "name": "SATHYABAMASAT",
        "names": "",
        "image": ""
    }
},
{
    "model": "base.satellite",
    "pk": 111,
    "fields": {
        "norad_cat_id": 41558,
        "name": "NUSAT 2",
        "names": "BATATA",
        "image": ""
    }
},
{
    "model": "base.satellite",
    "pk": 112,
    "fields": {
        "norad_cat_id": 41557,
        "name": "NUSAT 1",
        "names": "FRESCO",
        "image": ""
    }
},
{
    "model": "base.satellite",
    "pk": 113,
    "fields": {
        "norad_cat_id": 41478,
        "name": "NODES2",
        "names": "",
        "image": ""
    }
},
{
    "model": "base.satellite",
    "pk": 114,
    "fields": {
        "norad_cat_id": 41477,
        "name": "NODES1",
        "names": "",
        "image": ""
    }
},
{
    "model": "base.satellite",
    "pk": 115,
    "fields": {
        "norad_cat_id": 41476,
        "name": "STMSAT-1",
        "names": "",
        "image": ""
    }
},
{
    "model": "base.satellite",
    "pk": 116,
    "fields": {
        "norad_cat_id": 41475,
        "name": "CADRE",
        "names": "",
        "image": ""
    }
},
{
    "model": "base.satellite",
    "pk": 117,
    "fields": {
        "norad_cat_id": 41474,
        "name": "MINXSS",
        "names": ""
    }
},
{
    "model": "base.satellite",
    "pk": 118,
    "fields": {
        "norad_cat_id": 41460,
        "name": "AAUSAT 4",
        "names": "",
        "image": ""
    }
},
{
    "model": "base.satellite",
    "pk": 119,
    "fields": {
        "norad_cat_id": 41459,
        "name": "E-ST@R-II",
        "names": "",
        "image": ""
    }
},
{
    "model": "base.satellite",
    "pk": 120,
    "fields": {
        "norad_cat_id": 41458,
        "name": "OUFTI-1",
        "names": "",
        "image": ""
    }
},
{
    "model": "base.satellite",
    "pk": 121,
    "fields": {
        "norad_cat_id": 25635,
        "name": "ORSTED",
        "names": "\u00d8rsted"
    }
},
{
    "model": "base.satellite",
    "pk": 122,
    "fields": {
        "norad_cat_id": 41603,
        "name": "LAPAN-A3",
        "names": ""
    }
},
{
    "model": "base.satellite",
    "pk": 123,
    "fields": {
        "norad_cat_id": 28628,
        "name": "INMARSAT-4 F1",
        "names": ""
    }
},
{
    "model": "base.satellite",
    "pk": 124,
    "fields": {
        "norad_cat_id": 41789,
        "name": "ALSAT 1N",
        "names": "AlSat-Nano",
        "image": ""
    }
},
{
    "model": "base.satellite",
    "pk": 125,
    "fields": {
        "norad_cat_id": 41732,
        "name": "3CAT-2",
        "names": ""
    }
},
{
    "model": "base.satellite",
    "pk": 127,
    "fields": {
        "norad_cat_id": 40055,
        "name": "CANX-4",
        "names": "NLS 7.1",
        "image": ""
    }
},
{
    "model": "base.satellite",
    "pk": 128,
    "fields": {
        "norad_cat_id": 40056,
        "name": "CANX-5",
        "names": "NLS 7.2",
        "image": ""
    }
},
{
    "model": "base.satellite",
    "pk": 129,
    "fields": {
        "norad_cat_id": 38760,
        "name": "AENEAS",
        "names": "",
        "image": ""
    }
},
{
    "model": "base.satellite",
    "pk": 130,
    "fields": {
        "norad_cat_id": 39161,
        "name": "ESTCUBE",
        "names": "",
        "image": ""
    }
},
{
    "model": "base.satellite",
    "pk": 132,
    "fields": {
        "norad_cat_id": 33498,
        "name": "STARS",
        "names": "KUKAI mother and daughter",
        "image": ""
    }
},
{
    "model": "base.satellite",
    "pk": 133,
    "fields": {
        "norad_cat_id": 38078,
        "name": "ALMASAT-1",
        "names": "",
        "image": ""
    }
},
{
    "model": "base.satellite",
    "pk": 134,
    "fields": {
        "norad_cat_id": 39469,
        "name": "MCUBED-2",
        "names": "",
        "image": ""
    }
},
{
    "model": "base.satellite",
    "pk": 135,
    "fields": {
        "norad_cat_id": 40030,
        "name": "DTUSAT-2",
        "names": "",
        "image": ""
    }
},
{
    "model": "base.satellite",
    "pk": 136,
    "fields": {
        "norad_cat_id": 41465,
        "name": "AIST-2D",
        "names": "",
        "image": ""
    }
},
{
    "model": "base.satellite",
    "pk": 137,
    "fields": {
        "norad_cat_id": 41619,
        "name": "BEESAT-4",
        "names": "",
        "image": ""
    }
},
{
    "model": "base.satellite",
    "pk": 138,
    "fields": {
        "norad_cat_id": 41783,
        "name": "PRATHAM",
        "names": "",
        "image": ""
    }
},
{
    "model": "base.satellite",
    "pk": 139,
    "fields": {
        "norad_cat_id": 39151,
        "name": "PEGASUS",
        "names": "NEE-01",
        "image": ""
    }
},
{
    "model": "base.satellite",
    "pk": 140,
    "fields": {
        "norad_cat_id": 39441,
        "name": "KRYSAOR",
        "names": "NEE-02",
        "image": ""
    }
},
{
    "model": "base.satellite",
    "pk": 141,
    "fields": {
        "norad_cat_id": 39432,
        "name": "ICUBE-1",
        "names": "",
        "image": ""
    }
},
{
    "model": "base.satellite",
    "pk": 142,
    "fields": {
        "norad_cat_id": 39445,
        "name": "HINCUBE",
        "names": "",
        "image": ""
    }
},
{
    "model": "base.satellite",
    "pk": 143,
    "fields": {
        "norad_cat_id": 39428,
        "name": "DELFI-N3XT",
        "names": "",
        "image": ""
    }
},
{
    "model": "base.satellite",
    "pk": 144,
    "fields": {
        "norad_cat_id": 39426,
        "name": "CINEMA-3",
        "names": "",
        "image": ""
    }
},
{
    "model": "base.satellite",
    "pk": 145,
    "fields": {
        "norad_cat_id": 39092,
        "name": "UNIBRITE",
        "names": "CANX-3A",
        "image": ""
    }
},
{
    "model": "base.satellite",
    "pk": 146,
    "fields": {
        "norad_cat_id": 39091,
        "name": "TUGSAT-1",
        "names": "BRITE-Austria\r\nCANX-3B",
        "image": ""
    }
},
{
    "model": "base.satellite",
    "pk": 147,
    "fields": {
        "norad_cat_id": 39431,
        "name": "BRITE-PL",
        "names": "LEM",
        "image": ""
    }
},
{
    "model": "base.satellite",
    "pk": 148,
    "fields": {
        "norad_cat_id": 32787,
        "name": "COMPASS-1",
        "names": "",
        "image": ""
    }
},
{
    "model": "base.satellite",
    "pk": 149,
    "fields": {
        "norad_cat_id": 39383,
        "name": "DRAGONSAT-1",
        "names": "",
        "image": ""
    }
},
{
    "model": "base.satellite",
    "pk": 150,
    "fields": {
        "norad_cat_id": 39395,
        "name": "COPPER",
        "names": "",
        "image": ""
    }
},
{
    "model": "base.satellite",
    "pk": 151,
    "fields": {
        "norad_cat_id": 39405,
        "name": "CHARGERSAT-1",
        "names": "",
        "image": ""
    }
},
{
    "model": "base.satellite",
    "pk": 152,
    "fields": {
        "norad_cat_id": 31130,
        "name": "CAPE-1",
        "names": "",
        "image": ""
    }
},
{
    "model": "base.satellite",
    "pk": 153,
    "fields": {
        "norad_cat_id": 39382,
        "name": "CAPE-2",
        "names": "",
        "image": ""
    }
},
{
    "model": "base.satellite",
    "pk": 154,
    "fields": {
        "norad_cat_id": 39398,
        "name": "BLACK KNIGHT-1",
        "names": "",
        "image": ""
    }
},
{
    "model": "base.satellite",
    "pk": 155,
    "fields": {
        "norad_cat_id": 39384,
        "name": "KYSAT-2",
        "names": "",
        "image": ""
    }
},
{
    "model": "base.satellite",
    "pk": 156,
    "fields": {
        "norad_cat_id": 39400,
        "name": "TRAILBLAZER",
        "names": "SPA-1",
        "image": ""
    }
},
{
    "model": "base.satellite",
    "pk": 157,
    "fields": {
        "norad_cat_id": 39385,
        "name": "TJ3SAT",
        "names": "",
        "image": ""
    }
},
{
    "model": "base.satellite",
    "pk": 158,
    "fields": {
        "norad_cat_id": 39402,
        "name": "SWAMPSAT",
        "names": "",
        "image": ""
    }
},
{
    "model": "base.satellite",
    "pk": 159,
    "fields": {
        "norad_cat_id": 41895,
        "name": "STARS-C",
        "names": ""
    }
},
{
    "model": "base.satellite",
    "pk": 160,
    "fields": {
        "norad_cat_id": 40069,
        "name": "Meteor-M N2",
        "names": "",
        "image": ""
    }
},
{
    "model": "base.satellite",
    "pk": 161,
    "fields": {
        "norad_cat_id": 41930,
        "name": "FREEDOM",
        "names": ""
    }
},
{
    "model": "base.satellite",
    "pk": 162,
    "fields": {
        "norad_cat_id": 41931,
        "name": "WASEDA-SAT3",
        "names": ""
    }
},
{
    "model": "base.satellite",
    "pk": 163,
    "fields": {
        "norad_cat_id": 41934,
        "name": "TuPOD",
        "names": ""
    }
},
{
    "model": "base.satellite",
    "pk": 164,
    "fields": {
        "norad_cat_id": 41935,
        "name": "AOBA-Velox 3",
        "names": "AOBA-VeloxIII"
    }
},
{
    "model": "base.satellite",
    "pk": 165,
    "fields": {
        "norad_cat_id": 41932,
        "name": "ITF-2",
        "names": ""
    }
},
{
    "model": "base.satellite",
    "pk": 166,
    "fields": {
        "norad_cat_id": 41933,
        "name": "EGG",
        "names": ""
    }
},
{
    "model": "base.satellite",
    "pk": 167,
    "fields": {
        "norad_cat_id": 41909,
        "name": "BY70-1",
        "names": ""
    }
},
{
    "model": "base.satellite",
    "pk": 168,
    "fields": {
        "norad_cat_id": 41845,
        "name": "CAS-2T",
        "names": "KS-1Q"
    }
},
{
    "model": "base.satellite",
    "pk": 169,
    "fields": {
        "norad_cat_id": 41170,
        "name": "GALASSIA",
        "names": ""
    }
},
{
    "model": "base.satellite",
    "pk": 170,
    "fields": {
        "norad_cat_id": 42017,
        "name": "NAYIF",
        "names": "NAYIF-1\r\nFUNCUBE-5"
    }
},
{
    "model": "base.satellite",
    "pk": 171,
    "fields": {
        "norad_cat_id": 40661,
        "name": "LIGHTSAIL-1",
        "status": "re-entered"
    }
}
]
